<svg width="123" height="50" viewBox="0 0 123 50" fill="none" xmlns="http://www.w3.org/2000/svg">
<g clip-path="url(#clip0_24_17988)">
<path d="M118.528 8.96254C121.003 8.96254 123.01 6.95615 123.01 4.48115C123.01 2.00614 121.003 -0.000244141 118.528 -0.000244141C116.053 -0.000244141 114.047 2.00614 114.047 4.48115C114.047 6.95615 116.053 8.96254 118.528 8.96254Z" fill="white"/>
<path d="M110.398 24.8251C110.398 31.2314 105.547 35.0597 97.4263 35.0597C96.9923 35.0597 65.4464 35.0081 65.1242 35.0081H55.4567C55.2763 35.0081 55.113 34.8878 55.07 34.7117L49.5574 13.787C49.4758 13.4734 49.2137 13.2543 48.8872 13.2242C48.5649 13.1984 48.2684 13.3703 48.1352 13.671L38.6698 34.7761C38.6053 34.9179 38.4635 35.0124 38.3045 35.0124H30.4245C30.2354 35.0124 30.0765 34.8835 30.0335 34.6988L25.4619 14.3843C25.3888 14.062 25.131 13.83 24.8002 13.7956C24.4694 13.7656 24.1686 13.9374 24.0354 14.2382L14.8234 34.7718C14.759 34.9136 14.6172 35.0081 14.4582 35.0081H5.61141C5.47392 35.0081 5.35361 34.9437 5.27627 34.8277C5.20323 34.7117 5.19034 34.5742 5.2462 34.4453L19.8677 1.85098C20.3059 0.875645 21.277 0.248336 22.3425 0.248336H28.3922C29.6683 0.248336 30.7596 1.12055 31.0389 2.36658L35.1809 20.7691C35.2539 21.0913 35.5117 21.3233 35.8426 21.3577C36.1734 21.3878 36.4742 21.2159 36.6074 20.9152L45.1577 1.85098C45.5959 0.875645 46.5627 0.248336 47.6325 0.248336H53.6478C54.8767 0.248336 55.9551 1.07759 56.2688 2.27205L62.4989 25.9293C62.5849 26.2602 62.8856 26.4922 63.2293 26.4922H97.422C99.3856 26.4922 100.563 25.5126 100.563 23.867C100.563 22.2213 99.4199 21.2417 97.422 21.2417H77.6961C68.8966 21.2288 64.7976 17.7915 64.7976 10.4314C64.7976 4.03367 69.6485 0.201073 77.7692 0.175293H108.116C108.335 0.175293 108.516 0.355752 108.516 0.57488V8.29164C108.516 8.51077 108.335 8.69123 108.116 8.69123H77.7692C75.7712 8.69123 74.6283 9.64509 74.6283 11.3165C74.6283 12.8633 75.9216 13.9417 77.7692 13.9417H97.495C106.295 13.9546 110.394 17.4134 110.394 24.8251H110.398Z" fill="white"/>
<path d="M50.8851 46.5962C50.8851 47.8594 49.7766 48.3535 48.4145 48.3535C47.0525 48.3535 45.944 47.8594 45.944 46.5962V42.7507C45.944 42.6905 45.8967 42.639 45.8323 42.639H44.1308C44.0706 42.639 44.0191 42.6862 44.0191 42.7507V46.9528C44.0191 48.3148 44.7796 49.1656 45.9397 49.6081C46.4123 49.7886 46.9537 49.9046 47.5337 49.9604C47.8173 49.9862 48.1095 49.9991 48.4145 49.9991C48.7196 49.9991 49.0075 49.9862 49.2953 49.9604C49.8754 49.9046 50.4168 49.7886 50.8894 49.6081C52.0495 49.1613 52.81 48.3148 52.81 46.9528V42.7507C52.81 42.6905 52.7627 42.639 52.6983 42.639H50.9968C50.9367 42.639 50.8851 42.6862 50.8851 42.7507V46.5962Z" fill="white"/>
<path d="M28.3707 42.639C28.3277 42.639 28.2848 42.6648 28.2676 42.7077L26.3384 47.2536C26.2997 47.3438 26.1751 47.3438 26.1365 47.2536L24.2073 42.7077C24.1901 42.6691 24.1514 42.639 24.1041 42.639H21.35C21.2898 42.639 21.2383 42.6862 21.2383 42.7507V49.4534C21.2383 49.5136 21.2856 49.5652 21.35 49.5652H23.0515C23.1116 49.5652 23.1632 49.5179 23.1632 49.4534V45.1052C23.1632 44.9849 23.3265 44.9506 23.3737 45.0623L25.2556 49.4964C25.2728 49.5351 25.3115 49.5652 25.3588 49.5652H27.1204C27.1634 49.5652 27.2063 49.5394 27.2235 49.4964L29.1054 45.0623C29.1527 44.9506 29.316 44.9849 29.316 45.1052V49.4534C29.316 49.5136 29.3632 49.5652 29.4277 49.5652H31.1292C31.1893 49.5652 31.2409 49.5179 31.2409 49.4534V42.7507C31.2409 42.6905 31.1936 42.639 31.1292 42.639H28.3707Z" fill="white"/>
<path d="M39.7783 42.639C39.7353 42.639 39.6924 42.6648 39.6752 42.7077L37.746 47.2536C37.7073 47.3438 37.5827 47.3438 37.544 47.2536L35.6148 42.7077C35.5977 42.6691 35.559 42.639 35.5117 42.639H32.7576C32.6974 42.639 32.6459 42.6862 32.6459 42.7507V49.4534C32.6459 49.5136 32.6931 49.5652 32.7576 49.5652H34.459C34.5192 49.5652 34.5708 49.5179 34.5708 49.4534V45.1052C34.5708 44.9849 34.734 44.9506 34.7813 45.0623L36.6632 49.4964C36.6804 49.5351 36.7191 49.5652 36.7663 49.5652H38.528C38.5709 49.5652 38.6139 49.5394 38.6311 49.4964L40.513 45.0623C40.5603 44.9506 40.7235 44.9849 40.7235 45.1052V49.4534C40.7235 49.5136 40.7708 49.5652 40.8353 49.5652H42.5367C42.5969 49.5652 42.6484 49.5179 42.6484 49.4534V42.7507C42.6484 42.6905 42.6012 42.639 42.5367 42.639H39.7783Z" fill="white"/>
<path d="M88.0768 42.639C88.0167 42.639 87.9651 42.6862 87.9651 42.7507V44.0698C87.9651 44.1299 88.0124 44.1815 88.0768 44.1815H91.4153C91.4754 44.1815 91.527 44.2287 91.527 44.2932V49.4577C91.527 49.5179 91.5743 49.5695 91.6387 49.5695H93.3402C93.4003 49.5695 93.4519 49.5222 93.4519 49.4577V44.2932C93.4519 44.233 93.4992 44.1815 93.5636 44.1815H96.9021C96.9623 44.1815 97.0138 44.1342 97.0138 44.0698V42.7507C97.0138 42.6905 96.9666 42.639 96.9021 42.639H88.0768Z" fill="white"/>
<path d="M66.2456 42.639H64.5484C64.4867 42.639 64.4367 42.689 64.4367 42.7507V49.4491C64.4367 49.5108 64.4867 49.5609 64.5484 49.5609H66.2456C66.3073 49.5609 66.3573 49.5108 66.3573 49.4491V42.7507C66.3573 42.689 66.3073 42.639 66.2456 42.639Z" fill="white"/>
<path d="M84.6438 42.639H82.6888C82.6502 42.639 82.6158 42.6562 82.5986 42.6905L78.2074 49.3933C78.1602 49.4663 78.2117 49.5652 78.2977 49.5652H80.0464C80.0851 49.5652 80.1194 49.548 80.1366 49.5136L81.0088 48.1859C81.0303 48.1559 81.0647 48.1344 81.0991 48.1344H86.3238C86.3624 48.1344 86.3968 48.1516 86.414 48.1859L87.2862 49.5136C87.3077 49.5437 87.3421 49.5652 87.3765 49.5652H89.1252C89.2111 49.5652 89.267 49.4663 89.2154 49.3933L84.8243 42.6905C84.8028 42.6605 84.7684 42.639 84.734 42.639H84.6352H84.6438ZM82.1646 46.4243L83.6255 44.1944C83.6685 44.1299 83.7673 44.1299 83.8102 44.1944L85.2711 46.4243C85.3184 46.4974 85.2668 46.5962 85.1809 46.5962H82.2592C82.1732 46.5962 82.1174 46.4974 82.1689 46.4243H82.1646Z" fill="white"/>
<path d="M100.004 42.639H98.3071C98.2454 42.639 98.1954 42.689 98.1954 42.7507V49.4491C98.1954 49.5108 98.2454 49.5609 98.3071 49.5609H100.004C100.066 49.5609 100.116 49.5108 100.116 49.4491V42.7507C100.116 42.689 100.066 42.639 100.004 42.639Z" fill="white"/>
<path d="M60.5096 47.3266L56.4707 42.6776C56.4492 42.6519 56.4192 42.639 56.3891 42.639H54.1119C54.0517 42.639 54.0002 42.6862 54.0002 42.7507V49.4534C54.0002 49.5136 54.0474 49.5652 54.1119 49.5652H55.8133C55.8735 49.5652 55.9251 49.5179 55.9251 49.4534V44.7057C55.9251 44.6025 56.0497 44.5553 56.1184 44.6326L60.3678 49.5265C60.3893 49.5523 60.4193 49.5652 60.4494 49.5652H62.5161C62.5763 49.5652 62.6278 49.5179 62.6278 49.4534V42.7507C62.6278 42.6905 62.5805 42.639 62.5161 42.639H60.8146C60.7545 42.639 60.7029 42.6862 60.7029 42.7507V47.2536C60.7029 47.3567 60.5783 47.4039 60.5096 47.3266Z" fill="white"/>
<path d="M119.365 42.7507V47.2536C119.365 47.3567 119.24 47.4039 119.172 47.3266L115.133 42.6776C115.111 42.6519 115.081 42.639 115.051 42.639H112.774C112.714 42.639 112.662 42.6862 112.662 42.7507V49.4534C112.662 49.5136 112.709 49.5652 112.774 49.5652H114.475C114.536 49.5652 114.587 49.5179 114.587 49.4534V44.7057C114.587 44.6025 114.712 44.5553 114.78 44.6326L119.03 49.5265C119.051 49.5523 119.081 49.5652 119.111 49.5652H121.178C121.238 49.5652 121.29 49.5179 121.29 49.4534V42.7507C121.29 42.6905 121.243 42.639 121.178 42.639H119.477C119.416 42.639 119.365 42.6862 119.365 42.7507Z" fill="white"/>
<path d="M7.82848 42.3511C7.73825 42.3339 7.65232 42.3167 7.56638 42.3081C7.39022 42.2866 7.21835 42.2781 7.06367 42.2781H3.00765C2.87875 42.2781 2.74126 42.2866 2.59947 42.3081C2.44049 42.3296 2.27722 42.3683 2.11395 42.4155C1.44797 42.6218 0.786285 43.0557 0.433961 43.7432C0.433961 43.7432 0 44.4479 0 45.9861C0 45.9861 0 45.9903 0 45.9946C0 45.9989 0 45.9989 0 46.0032C0 47.5414 0.433961 48.2461 0.433961 48.2461C0.786285 48.9335 1.44797 49.3675 2.11395 49.5695C2.27722 49.621 2.44049 49.6554 2.59947 49.6769C2.73696 49.6984 2.87445 49.7069 3.00765 49.7069H7.06367C7.21835 49.7069 7.38592 49.6984 7.56638 49.6769C7.65232 49.664 7.74254 49.6511 7.82848 49.6339C8.66202 49.462 9.54284 48.9335 9.54284 47.4598V47.1376C9.54284 47.0774 9.49557 47.0258 9.43112 47.0258H7.85855C7.85855 47.4125 7.72536 47.9195 7.11094 47.9195H3.11936C2.65962 47.9195 2.23425 47.6488 2.03661 47.2106C2.03661 47.2106 2.03661 47.2063 2.03661 47.202C1.97216 47.0602 1.93349 46.9184 1.90771 46.7766C1.88193 46.6391 1.86904 46.3212 1.86904 45.9946C1.86904 45.6681 1.88193 45.3502 1.90771 45.2127C1.93349 45.0666 1.97216 44.9248 2.03661 44.7873C2.03661 44.7873 2.03661 44.783 2.03661 44.7787C2.23425 44.3404 2.65962 44.0698 3.11936 44.0698H7.11094C7.6738 44.0698 7.85855 44.4006 7.85855 44.8002H9.43112C9.49128 44.8002 9.54284 44.7529 9.54284 44.6885V44.5295C9.54284 43.0557 8.66202 42.523 7.82848 42.3554V42.3511Z" fill="white"/>
<path d="M77.4684 47.1376C77.4684 47.0774 77.4211 47.0258 77.3567 47.0258H75.7841C75.7583 47.4383 75.6509 47.9195 75.0365 47.9195H71.0449C70.5852 47.9195 70.1598 47.6488 69.9622 47.2106C69.9622 47.2106 69.9622 47.2063 69.9622 47.202C69.8977 47.0602 69.8591 46.9184 69.8333 46.7766C69.8075 46.6391 69.7946 46.3212 69.7946 45.9946C69.7946 45.6681 69.8075 45.3502 69.8333 45.2127C69.8591 45.0666 69.8977 44.9248 69.9622 44.7873C69.9622 44.7873 69.9622 44.783 69.9622 44.7787C70.1598 44.3404 70.5852 44.0698 71.0449 44.0698H75.0365C75.4275 44.0698 75.7583 44.3877 75.7841 44.8002H77.3567C77.4168 44.8002 77.4684 44.7529 77.4684 44.6885V44.5295C77.4684 43.0557 76.5876 42.523 75.754 42.3554C75.6638 42.3382 75.5779 42.321 75.492 42.3124C75.3158 42.2909 75.1439 42.2824 74.9892 42.2824H70.9332C70.8043 42.2824 70.6668 42.2909 70.525 42.3124C70.3661 42.3339 70.2028 42.3726 70.0395 42.4198C69.3735 42.6261 68.7119 43.06 68.3595 43.7475C68.3595 43.7475 67.9256 44.4522 67.9256 45.9903C67.9256 45.9903 67.9256 45.9946 67.9256 45.9989C67.9256 46.0032 67.9256 46.0032 67.9256 46.0075C67.9256 47.5457 68.3595 48.2504 68.3595 48.2504C68.7119 48.9378 69.3735 49.3718 70.0395 49.5737C70.2028 49.6253 70.3661 49.6597 70.525 49.6812C70.6625 49.7026 70.8 49.7112 70.9332 49.7112H74.9892C75.1439 49.7112 75.3115 49.7026 75.492 49.6812C75.5779 49.6683 75.6681 49.6554 75.754 49.6382C76.5876 49.4663 77.4684 48.9378 77.4684 47.4641V47.1376Z" fill="white"/>
<path d="M19.6485 44.4092C19.5927 44.1729 19.4981 43.9494 19.3735 43.7389C19.1544 43.3651 18.8365 43.0429 18.4755 42.8108C17.9342 42.4628 17.2897 42.2909 16.6495 42.2781C16.6495 42.2781 16.6452 42.2781 16.6409 42.2781C16.4432 42.2866 13.2809 42.2523 13.311 42.3081C12.4044 42.437 11.4892 42.8968 11.0166 43.7432C10.4279 44.4564 10.4365 47.55 11.0166 48.2461C11.5623 49.2171 12.6794 49.6898 13.7321 49.7112C13.7321 49.7112 13.7364 49.7112 13.7407 49.7112C13.9383 49.7026 17.1006 49.737 17.0705 49.6812C17.0748 49.6941 17.2811 49.6468 17.3026 49.6425C17.3842 49.6253 17.4615 49.6081 17.5389 49.5866C17.6979 49.5437 17.8525 49.4921 18.0029 49.4277C18.3037 49.2988 18.5873 49.1269 18.8322 48.9121C18.9697 48.7918 19.09 48.6543 19.1974 48.5082C19.3048 48.3664 19.4122 48.2117 19.4896 48.0484C19.5755 47.868 19.627 47.6746 19.67 47.4813C19.7216 47.2407 19.7516 46.9915 19.7731 46.7466C19.7946 46.4759 19.8075 46.2052 19.8032 45.9345C19.8032 45.6638 19.786 45.3974 19.7602 45.1267C19.7345 44.8861 19.7001 44.6498 19.6442 44.4135L19.6485 44.4092ZM16.5292 48.143H13.861C12.8427 48.1215 12.2626 47.4125 12.3142 46.0032C12.3142 46.0032 12.3142 46.0032 12.3142 45.9989C12.2583 44.5596 12.8384 43.9838 13.861 43.9623H16.5292C17.5518 43.9838 18.1318 44.6799 18.076 45.9861C18.076 45.9861 18.076 45.9903 18.076 45.9946C18.1318 47.4168 17.5518 48.1258 16.5292 48.1473V48.143Z" fill="white"/>
<path d="M110.853 44.4092C110.797 44.1729 110.703 43.9494 110.578 43.7389C110.359 43.3651 110.041 43.0429 109.68 42.8108C109.139 42.4628 108.494 42.2909 107.854 42.2781C107.854 42.2781 107.85 42.2781 107.846 42.2781C107.648 42.2866 104.486 42.2523 104.516 42.3081C103.609 42.437 102.694 42.8968 102.221 43.7432C101.633 44.4564 101.641 47.55 102.221 48.2461C102.767 49.2171 103.884 49.6898 104.937 49.7112C104.937 49.7112 104.941 49.7112 104.945 49.7112C105.143 49.7026 108.305 49.737 108.275 49.6812C108.28 49.6941 108.486 49.6468 108.507 49.6425C108.589 49.6253 108.666 49.6081 108.744 49.5866C108.903 49.5437 109.057 49.4921 109.208 49.4277C109.508 49.2988 109.792 49.1269 110.037 48.9121C110.174 48.7918 110.295 48.6543 110.402 48.5082C110.51 48.3664 110.617 48.2117 110.694 48.0484C110.78 47.868 110.832 47.6746 110.875 47.4813C110.926 47.2407 110.956 46.9915 110.978 46.7466C110.999 46.4759 111.012 46.2052 111.008 45.9345C111.008 45.6638 110.991 45.3974 110.965 45.1267C110.939 44.8861 110.905 44.6498 110.849 44.4135L110.853 44.4092ZM107.734 48.143H105.066C104.047 48.1215 103.467 47.4125 103.519 46.0032C103.519 46.0032 103.519 46.0032 103.519 45.9989C103.463 44.5596 104.043 43.9838 105.066 43.9623H107.734C108.757 43.9838 109.337 44.6799 109.281 45.9861C109.281 45.9861 109.281 45.9903 109.281 45.9946C109.337 47.4168 108.757 48.1258 107.734 48.1473V48.143Z" fill="white"/>
</g>
<defs>
<clipPath id="clip0_24_17988">
<rect width="123.004" height="50" fill="white"/>
</clipPath>
</defs>
</svg>
