<svg width="56" height="56" viewBox="0 0 56 56" fill="none" xmlns="http://www.w3.org/2000/svg">
    <path fill-rule="evenodd" clip-rule="evenodd" d="M2.8 10.08C1.2536 10.08 0 11.3336 0 12.88V53.2C0 54.7464 1.2536 56 2.8 56H53.2C54.7464 56 56 54.7464 56 53.2V12.88C56 11.3336 54.7464 10.08 53.2 10.08H2.8ZM14 15.68C12.7629 15.68 11.76 16.6829 11.76 17.92C11.76 19.1571 12.7629 20.16 14 20.16H42C43.2371 20.16 44.24 19.1571 44.24 17.92C44.24 16.6829 43.2371 15.68 42 15.68H14ZM11.76 25.76C11.76 24.5229 12.7629 23.52 14 23.52H42C43.2371 23.52 44.24 24.5229 44.24 25.76C44.24 26.9971 43.2371 28 42 28H14C12.7629 28 11.76 26.9971 11.76 25.76ZM14 31.36C12.7629 31.36 11.76 32.3629 11.76 33.6C11.76 34.8371 12.7629 35.84 14 35.84H42C43.2371 35.84 44.24 34.8371 44.24 33.6C44.24 32.3629 43.2371 31.36 42 31.36H14Z" fill="white"/>
    <path d="M16.24 2.24C16.24 1.00288 17.2429 0 18.48 0H37.52C38.7571 0 39.76 1.00288 39.76 2.24V4.48C39.76 5.71712 38.7571 6.72 37.52 6.72H18.48C17.2429 6.72 16.24 5.71712 16.24 4.48V2.24Z" fill="white"/>
</svg>
