<svg width="56" height="47" viewBox="0 0 56 47" fill="none" xmlns="http://www.w3.org/2000/svg">
    <path d="M28 16C32.4183 16 36 12.4183 36 8C36 3.58172 32.4183 0 28 0C23.5817 0 20 3.58172 20 8C20 12.4183 23.5817 16 28 16Z" fill="white"/>
    <path d="M28 19C21.3636 19 15.8887 23.9727 15.0981 30.3953C13.6053 29.5089 11.8621 29 10 29C4.47715 29 0 33.4772 0 39V45.3636C0 46.2674 0.732626 47 1.63636 47H54.3636C55.2674 47 56 46.2674 56 45.3636V39C56 33.4772 51.5228 29 46 29C44.1379 29 42.3947 29.5089 40.9019 30.3953C40.1113 23.9727 34.6364 19 28 19Z" fill="white"/>
    <path d="M52 20C52 23.3137 49.3137 26 46 26C42.6863 26 40 23.3137 40 20C40 16.6863 42.6863 14 46 14C49.3137 14 52 16.6863 52 20Z" fill="white"/>
    <path d="M10 26C13.3137 26 16 23.3137 16 20C16 16.6863 13.3137 14 10 14C6.68629 14 4 16.6863 4 20C4 23.3137 6.68629 26 10 26Z" fill="white"/>
</svg>