<svg width="56" height="56" viewBox="0 0 56 56" fill="none" xmlns="http://www.w3.org/2000/svg">
    <path fill-rule="evenodd" clip-rule="evenodd" d="M37.3109 42.6247C33.4384 45.424 28.6803 47.0738 23.5369 47.0738C10.5378 47.0738 0 36.536 0 23.5369C0 10.5378 10.5378 0 23.5369 0C36.536 0 47.0738 10.5378 47.0738 23.5369C47.0738 28.6806 45.4238 33.439 42.6242 37.3115L55.0152 49.7024C56.3283 51.0155 56.3283 53.1445 55.0152 54.4576L54.4571 55.0157C53.144 56.3288 51.015 56.3288 49.7019 55.0157L37.3109 42.6247ZM40.349 23.5369C40.349 32.822 32.822 40.349 23.5369 40.349C14.2519 40.349 6.72483 32.822 6.72483 23.5369C6.72483 14.2519 14.2519 6.72483 23.5369 6.72483C32.822 6.72483 40.349 14.2519 40.349 23.5369Z" fill="white"/>
</svg>
